^C:\USERS\HR18163ADMIN\DOCUMENTS\VISUAL STUDIO 2012\PROJECTS\CPPDS5LIB\MIXEDCODE\STDAFX.CPP
/c /AI"C:\Program Files (x86)\Reference Assemblies\Microsoft\Framework\.NETFramework\v4.5\\" /AI"C:\Program Files (x86)\Windows Kits\8.0\References\CommonConfiguration\Neutral" /AI"C:\Program Files (x86)\Reference Assemblies\Microsoft\Framework\.NETFramework\v4.5\Facades\\" /Zi /clr /nologo /W3 /WX- /O2 /Oy- /D WIN32 /D NDEBUG /D _WINDLL /D _UNICODE /D UNICODE /EHa /MD /GS /fp:precise /Zc:wchar_t /Zc:forScope /Yc"stdafx.h" /Fp"RELEASE\MIXEDCODE.PCH" /Fo"RELEASE\\" /Fd"RELEASE\VC110.PDB" /TP /FU"C:\Users\HR18163admin\Documents\Visual Studio 2012\Projects\CPPDS5Lib\MixedCode\DS5LibAssembly.dll" /FUC:\Windows\Microsoft.Net\assembly\GAC_32\Interop.DS5Lib\v4.0_1.0.0.0__7a97b4d86d41e7cb\Interop.DS5Lib.dll /FU"C:\Program Files (x86)\Reference Assemblies\Microsoft\Framework\.NETFramework\v4.5\mscorlib.dll" /FU"C:\Program Files (x86)\Reference Assemblies\Microsoft\Framework\.NETFramework\v4.5\System.Data.dll" /FU"C:\Program Files (x86)\Reference Assemblies\Microsoft\Framework\.NETFramework\v4.5\System.dll" /FU"C:\Program Files (x86)\Reference Assemblies\Microsoft\Framework\.NETFramework\v4.5\System.Xml.dll" /analyze- /clr:nostdlib  C:\USERS\HR18163ADMIN\DOCUMENTS\VISUAL STUDIO 2012\PROJECTS\CPPDS5LIB\MIXEDCODE\STDAFX.CPP
^C:\USERS\HR18163ADMIN\DOCUMENTS\VISUAL STUDIO 2012\PROJECTS\CPPDS5LIB\MIXEDCODE\ASSEMBLYINFO.CPP
/c /AI"C:\Program Files (x86)\Reference Assemblies\Microsoft\Framework\.NETFramework\v4.5\\" /AI"C:\Program Files (x86)\Windows Kits\8.0\References\CommonConfiguration\Neutral" /AI"C:\Program Files (x86)\Reference Assemblies\Microsoft\Framework\.NETFramework\v4.5\Facades\\" /Zi /clr /nologo /W3 /WX- /O2 /Oy- /D WIN32 /D NDEBUG /D _WINDLL /D _UNICODE /D UNICODE /EHa /MD /GS /fp:precise /Zc:wchar_t /Zc:forScope /Yu"stdafx.h" /Fp"RELEASE\MIXEDCODE.PCH" /Fo"RELEASE\\" /Fd"RELEASE\VC110.PDB" /TP /FU"C:\Users\HR18163admin\Documents\Visual Studio 2012\Projects\CPPDS5Lib\MixedCode\DS5LibAssembly.dll" /FUC:\Windows\Microsoft.Net\assembly\GAC_32\Interop.DS5Lib\v4.0_1.0.0.0__7a97b4d86d41e7cb\Interop.DS5Lib.dll /FU"C:\Program Files (x86)\Reference Assemblies\Microsoft\Framework\.NETFramework\v4.5\mscorlib.dll" /FU"C:\Program Files (x86)\Reference Assemblies\Microsoft\Framework\.NETFramework\v4.5\System.Data.dll" /FU"C:\Program Files (x86)\Reference Assemblies\Microsoft\Framework\.NETFramework\v4.5\System.dll" /FU"C:\Program Files (x86)\Reference Assemblies\Microsoft\Framework\.NETFramework\v4.5\System.Xml.dll" /analyze- /clr:nostdlib  C:\USERS\HR18163ADMIN\DOCUMENTS\VISUAL STUDIO 2012\PROJECTS\CPPDS5LIB\MIXEDCODE\ASSEMBLYINFO.CPP
^C:\USERS\HR18163ADMIN\DOCUMENTS\VISUAL STUDIO 2012\PROJECTS\CPPDS5LIB\MIXEDCODE\MIXEDCODE.CPP
/c /AI"C:\Program Files (x86)\Reference Assemblies\Microsoft\Framework\.NETFramework\v4.5\\" /AI"C:\Program Files (x86)\Windows Kits\8.0\References\CommonConfiguration\Neutral" /AI"C:\Program Files (x86)\Reference Assemblies\Microsoft\Framework\.NETFramework\v4.5\Facades\\" /Zi /clr /nologo /W3 /WX- /O2 /Oy- /D WIN32 /D NDEBUG /D _WINDLL /D _UNICODE /D UNICODE /EHa /MD /GS /fp:precise /Zc:wchar_t /Zc:forScope /Yu"stdafx.h" /Fp"RELEASE\MIXEDCODE.PCH" /Fo"RELEASE\\" /Fd"RELEASE\VC110.PDB" /TP /FU"C:\Users\HR18163admin\Documents\Visual Studio 2012\Projects\CPPDS5Lib\MixedCode\DS5LibAssembly.dll" /FUC:\Windows\Microsoft.Net\assembly\GAC_32\Interop.DS5Lib\v4.0_1.0.0.0__7a97b4d86d41e7cb\Interop.DS5Lib.dll /FU"C:\Program Files (x86)\Reference Assemblies\Microsoft\Framework\.NETFramework\v4.5\mscorlib.dll" /FU"C:\Program Files (x86)\Reference Assemblies\Microsoft\Framework\.NETFramework\v4.5\System.Data.dll" /FU"C:\Program Files (x86)\Reference Assemblies\Microsoft\Framework\.NETFramework\v4.5\System.dll" /FU"C:\Program Files (x86)\Reference Assemblies\Microsoft\Framework\.NETFramework\v4.5\System.Xml.dll" /analyze- /clr:nostdlib  C:\USERS\HR18163ADMIN\DOCUMENTS\VISUAL STUDIO 2012\PROJECTS\CPPDS5LIB\MIXEDCODE\MIXEDCODE.CPP
^C:\USERS\HR18163ADMIN\APPDATA\LOCAL\TEMP\.NETFRAMEWORK,VERSION=V4.5.ASSEMBLYATTRIBUTES.CPP
/c /Zi /clr /nologo /W3 /WX- /O2 /Oy- /D WIN32 /D NDEBUG /D _WINDLL /D _UNICODE /D UNICODE /EHa /MD /GS /fp:precise /Zc:wchar_t /Zc:forScope /Fo"RELEASE\\" /Fd"RELEASE\VC110.PDB" /TP /analyze- C:\USERS\HR18163ADMIN\APPDATA\LOCAL\TEMP\.NETFRAMEWORK,VERSION=V4.5.ASSEMBLYATTRIBUTES.CPP
