^C:\USERS\HR18163ADMIN\DOCUMENTS\BITBUCKET\REPOSITORY\DIGITIMER-DS5-WRAPPER-C-PYTHON\C++\PROJECTS\CPPDS5LIB\RELEASE\MIXEDCODE.LIB|C:\USERS\HR18163ADMIN\DOCUMENTS\BITBUCKET\REPOSITORY\DIGITIMER-DS5-WRAPPER-C-PYTHON\C++\PROJECTS\DS5LIBTEST\DS5LIBTEST\RELEASE\DS5LIBTEST.OBJ|C:\USERS\HR18163ADMIN\DOCUMENTS\BITBUCKET\REPOSITORY\DIGITIMER-DS5-WRAPPER-C-PYTHON\C++\PROJECTS\DS5LIBTEST\DS5LIBTEST\RELEASE\STDAFX.OBJ
C:\USERS\HR18163ADMIN\DOCUMENTS\BITBUCKET\REPOSITORY\DIGITIMER-DS5-WRAPPER-C-PYTHON\C++\PROJECTS\DS5LIBTEST\DS5LIBTEST\RELEASE\DS5LIBTEST.EXE
C:\USERS\HR18163ADMIN\DOCUMENTS\BITBUCKET\REPOSITORY\DIGITIMER-DS5-WRAPPER-C-PYTHON\C++\PROJECTS\DS5LIBTEST\DS5LIBTEST\RELEASE\DS5LIBTEST.PDB
